{
    "editor": [
        {
            "icon": "",
            "key": "settings",
            "header": "Portfolio Settings",
            "disabled": false,
            "fields": [
                {
                    "key": "bgImg",
                    "header": "Portfolio Background",
                    "type": "image"
                },
                {
                    "key": "profileImg",
                    "header": "Profile Image",
                    "type": "image"
                },
                {
                    "key": "profileName",
                    "header": "Profile Name",
                    "type": "text"
                },
                {
                    "key": "profileDesc",
                    "header": "Profile Description",
                    "type": "text"
                },
                {
                    "key": "socialLinks",
                    "header": "Social Links",
                    "type": "array",
                    "fields": [
                        {
                            "key": "platform1",
                            "header": "Platform 1",
                            "type": "array",
                            "fields": [
                                {
                                    "key": "platform",
                                    "header": "Social Platform",
                                    "type": "text"
                                },
                                {
                                    "key": "platformLink",
                                    "header": "Social Platform Link",
                                    "type": "text"
                                },
                                {
                                    "key": "order",
                                    "header": "Order of Placement",
                                    "type": "number"
                                },
                                {
                                    "key": "platformImg",
                                    "header": "Platform Image",
                                    "type": "image"
                                }
                            ]
                        },
                        {
                            "key": "platform2",
                            "header": "Platform 2",
                            "type": "array",
                            "fields": [
                                {
                                    "key": "platform",
                                    "header": "Social Platform",
                                    "type": "text"
                                },
                                {
                                    "key": "platformLink",
                                    "header": "Social Platform Link",
                                    "type": "text"
                                },
                                {
                                    "key": "order",
                                    "header": "Order of Placement",
                                    "type": "number"
                                },
                                {
                                    "key": "platformImg",
                                    "header": "Platform Image",
                                    "type": "image"
                                }
                            ]
                        },
                        {
                            "key": "platform3",
                            "header": "Platform 3",
                            "type": "array",
                            "fields": [
                                {
                                    "key": "platform",
                                    "header": "Social Platform",
                                    "type": "text"
                                },
                                {
                                    "key": "platformLink",
                                    "header": "Social Platform Link",
                                    "type": "text"
                                },
                                {
                                    "key": "order",
                                    "header": "Order of Placement",
                                    "type": "number"
                                },
                                {
                                    "key": "platformImg",
                                    "header": "Platform Image",
                                    "type": "image"
                                }
                            ]
                        }
                    ]
                },
                {
                    "key": "customLinks",
                    "header": "Custom Links",
                    "type": "array",
                    "fields": [
                        {
                            "key": "customLink1",
                            "header": "Custom Link 1",
                            "type": "array",
                            "fields": [
                                {
                                    "key": "linkImg",
                                    "header": "Link Image",
                                    "type": "image"
                                },
                                {
                                    "key": "linkUrl",
                                    "header": "Link Url",
                                    "type": "text"
                                },
                                {
                                    "key": "linkDesc",
                                    "header": "Link Description",
                                    "type": "text"
                                }
                            ]
                        },
                        {
                            "key": "customLink2",
                            "header": "Custom Link 2",
                            "type": "array",
                            "fields": [
                                {
                                    "key": "linkImg",
                                    "header": "Link Image",
                                    "type": "image"
                                },
                                {
                                    "key": "linkUrl",
                                    "header": "Link Url",
                                    "type": "text"
                                },
                                {
                                    "key": "linkDesc",
                                    "header": "Link Description",
                                    "type": "text"
                                }
                            ]
                        },
                        {
                            "key": "customLink3",
                            "header": "Custom Link 3",
                            "type": "array",
                            "fields": [
                                {
                                    "key": "linkImg",
                                    "header": "Link Image",
                                    "type": "image"
                                },
                                {
                                    "key": "linkUrl",
                                    "header": "Link Url",
                                    "type": "text"
                                },
                                {
                                    "key": "linkDesc",
                                    "header": "Link Description",
                                    "type": "text"
                                }
                            ]
                        }
                    ]
                },
                {
                    "key": "borderClr",
                    "header": "border color",
                    "type": "color"
                },
                {
                    "key": "transparency",
                    "header": "Transparency",
                    "type": "boolean"
                },
                {
                    "key": "rowClr",
                    "header": "Row Color",
                    "type": "color"
                }
            ]
        }
    ],
    "config": {
        "settings": {
            "bgImg": "https://frontend.apps.playcent.com/4f181596d1824cecac4c77b9d2ada07e/assets/AltruisticSlimyAlbacoretuna-size_restricted.gif",
            "profileImg": "https://frontend.apps.playcent.com/cfb8e83b80564fcca355622731ab6dab/assets/2ok93xC__400x400.jpg",
            "profileName": "@FTX",
            "profileDesc": "Crypto Derivatives Exchange by Alameda Research. Chart with upwards trend Futures, Volatility Products, Leveraged Tokens, OTC",
            "socialLinks": {
                "platform1": {
                    "platform": "Telegram",
                    "platformLink": "https://t.co/KpsWYT2DxW?amp=1",
                    "order": "2",
                    "platformImg": "https://frontend.apps.playcent.com/4f181596d1824cecac4c77b9d2ada07e/assets/telegram-logo-computer-icons-telegram-logo-thumbnail-removebg-preview.png"
                },
                "platform2": {
                    "platform": "Linkedin",
                    "platformLink": "https://www.linkedin.com/company/ftx/",
                    "order": "1",
                    "platformImg": "https://frontend.apps.playcent.com/d8c73c81f082488f9f89a36beeec12a1/assets/linkedin.png"
                },
                "platform3": {
                    "platform": "Twitter",
                    "platformLink": "https://twitter.com/FTX_Official",
                    "order": "3",
                    "platformImg": "https://frontend.apps.playcent.com/d8c73c81f082488f9f89a36beeec12a1/assets/twitter.png"
                }
            },
            "customLinks": {
                "customLink1": {
                    "linkImg": "https://frontend.apps.playcent.com/caeb2002cb5741298e5027be8848583b/assets/icons8-internet-50.png",
                    "linkUrl": "https://ftx.com/",
                    "linkDesc": "Exchange"
                },
                "customLink2": {
                    "linkImg": "https://frontend.apps.playcent.com/4f181596d1824cecac4c77b9d2ada07e/assets/207810.gif",
                    "linkUrl": "https://blog.ftx.com/",
                    "linkDesc": "Blog"
                },
                "customLink3": {
                    "linkImg": "https://frontend.apps.playcent.com/4f181596d1824cecac4c77b9d2ada07e/assets/3DoZ.gif",
                    "linkUrl": "https://ftx.com/leaderboard",
                    "linkDesc": "Leaderboard"
                }
            },
            "borderClr": "#000000",
            "transparency": false,
            "rowClr": "#1e1e1d"
        }
    }
}